<svg xmlns="http://www.w3.org/2000/svg" width="24.782" height="25.532" viewBox="0 0 24.782 25.532">
  <defs>
    <style>
      .cls-1 {
        fill: #666;
        fill-rule: evenodd;
      }
    </style>
  </defs>
  <path id="_" data-name="+" class="cls-1" d="M624.639,268.661v11.281H613.79v2.88h10.849V294.2h3.072V282.822H638.56v-2.88H627.711V268.661h-3.072Z" transform="translate(-613.781 -268.656)"/>
</svg>
