<?xml version="1.0" encoding="utf-8"?>
<!-- Generator: Adobe Illustrator 19.0.0, SVG Export Plug-In . SVG Version: 6.00 Build 0)  -->
<svg version="1.1" id="Layer_1" xmlns="http://www.w3.org/2000/svg" xmlns:xlink="http://www.w3.org/1999/xlink" x="0px" y="0px"
	 viewBox="-297 385.9 16 22.1" style="enable-background:new -297 385.9 16 22.1;" xml:space="preserve">
<style type="text/css">
	.st0{fill:#EE1D23;}
</style>
<path class="st0" d="M-297,385.9V408l6.6-5.2l1.4-1l1.4,1.1l6.6,5.2v-22.2H-297z"/>
</svg>
