<?xml version="1.0" encoding="utf-8"?>
<!-- Generator: Adobe Illustrator 20.1.0, SVG Export Plug-In . SVG Version: 6.00 Build 0)  -->
<svg version="1.1" id="Layer_1" xmlns="http://www.w3.org/2000/svg" xmlns:xlink="http://www.w3.org/1999/xlink" x="0px" y="0px"
	 viewBox="0 0 16 22.1" style="enable-background:new 0 0 16 22.1;" xml:space="preserve">
<style type="text/css">
	.st0{fill:#004846;}
</style>
<path class="st0" d="M0,0v22.1l6.6-5.2L8,15.9l1.4,1.1l6.6,5.2V0H0z"/>
</svg>
