<svg xmlns="http://www.w3.org/2000/svg" xmlns:xlink="http://www.w3.org/1999/xlink" preserveAspectRatio="xMidYMid" width="16" height="22.094" viewBox="0 0 16 22.094">
  <defs>
    <style>
      .cls-1 {
        fill: #ed0000;
        fill-rule: evenodd;
      }
    </style>
  </defs>
  <path d="M0.001,-0.011 L0.001,22.104 L6.609,16.943 L7.999,15.862 L9.389,16.943 L15.996,22.104 L15.996,-0.011 L0.001,-0.011 Z" class="cls-1"/>
</svg>
