<svg xmlns="http://www.w3.org/2000/svg" width="12" height="12" viewBox="0 0 12 12">
    <path fill="#7ED321" fill-rule="evenodd" d="M11.558.115a.908.908 0 0 0-1.208.304L4.694 9.797 1.53 7.004A.914.914 0 0 0 .28 6.97a.817.817 0 0 0-.04 1.194l4.042 3.571a.912.912 0 0 0 1.25.034c.108-.093 6.35-10.503 6.35-10.503a.822.822 0 0 0-.324-1.151z"/>
</svg>
