<?xml version="1.0" encoding="utf-8"?>
<!-- Generator: Adobe Illustrator 19.2.0, SVG Export Plug-In . SVG Version: 6.00 Build 0)  -->
<svg version="1.1" id="Layer_1" xmlns="http://www.w3.org/2000/svg" xmlns:xlink="http://www.w3.org/1999/xlink" x="0px" y="0px"
	 viewBox="0 0 6.3 9.4" style="enable-background:new 0 0 6.3 9.4;" xml:space="preserve">
<style type="text/css">
	.st0{fill:#E67E22;}
	.st1{fill:#FFFFFF;}
</style>
<g>
	<path class="st0" d="M1.2,9.4h3.9c0.7,0,1.2-0.6,1.2-1.2v-7C6.4,0.6,5.8,0,5.2,0h-4C0.6,0,0,0.6,0,1.2v6.9C0,8.8,0.6,9.4,1.2,9.4z"
		/>
</g>
<g>
	<rect y="6.8" class="st1" width="6.3" height="0.5"/>
</g>
</svg>
