<svg xmlns="http://www.w3.org/2000/svg" width="12" height="18" viewBox="0 0 12 18">
    <path fill="#939293" fill-rule="evenodd" d="M12 12.632H0V3a3 3 0 0 1 3-3h6a3 3 0 0 1 3 3v9.632zm0 1.263v.79a3 3 0 0 1-3 3H3a3 3 0 0 1-3-3v-.79h12z"/>
</svg>
