[
    {
        "scope": {
            "scopeType": "SEGMENT",
            "flightSegmentRPH": "G9$SHJ/DEL$1744678$20160126130000$20160126173000"
        },
        "applicability": {
            "applicableType": "PASSENGER"
        },
        "items": [
            {
                "weight": 20,
                "price": 100,
                "selected": false,
                "baggageId":"0001"

            },
            {
                "weight": 30,
                "price": 130,
                "selected": false,
                "baggageId":"0001"

            },
            {
                "weight": 40,
                "price": 140,
                "selected": false,
                "baggageId":"0002"

            },
            {
                "weight": 50,
                "price": 150,
                "selected": false,
                "baggageId":"0003"

            },
            {
                "weight": 70,
                "price": 170,
                "selected": true,
                "baggageId":"0004"

            },
            {
                "weight": 80,
                "price": 200,
                "selected": false,
                "baggageId":"0005"

            },
            {
                "weight": 90,
                "price": 230,
                "selected": false,
                "baggageId":"0006"

            },
            {
                "weight": 100,
                "price": 260,
                "selected": false,
                "baggageId":"0007"

            }
        ]
    },
    {
        "scope": {
            "scopeType": "SEGMENT",
            "flightSegmentRPH": "G9$DEL/SHJ$1745157$20160213025000$20160213051000"
        },
        "applicability": {
            "applicableType": "PASSENGER"
        },
        "items": [
            {
                "weight": 20,
                "price": 100,
                "selected": false,
                "baggageId":"0001"

            },
            {
                "weight": 30,
                "price": 130,
                "selected": false,
                "baggageId":"0001"

            },
            {
                "weight": 40,
                "price": 140,
                "selected": false,
                "baggageId":"0002"

            },
            {
                "weight": 50,
                "price": 150,
                "selected": false,
                "baggageId":"0003"

            },
            {
                "weight": 70,
                "price": 170,
                "selected": false,
                "baggageId":"0004"

            },
            {
                "weight": 80,
                "price": 200,
                "selected": false,
                "baggageId":"0005"

            },
            {
                "weight": 90,
                "price": 230,
                "selected": true,
                "baggageId":"0006"

            },
            {
                "weight": 100,
                "price": 260,
                "selected": false,
                "baggageId":"0007"

            }
        ]
    }
]