{
    "success": true,
    "messages": null,
    "errors": null,
    "warnings": null,
    "modifiedBalanceInfo": null,
    "updatedChargeForDisplay": null,
    "cancelBalanceSummary": {
        "airFare": "690.00",
        "tax": "306.00",
        "discount": "0.00",
        "creditableAmount": "996.00",
        "cancelChrage": "420.00",
        "perPaxCancelCharge": "140.00",
        "availableCredit": "0.00",
        "finalCredit": "576.00"
    }
}