{
  "success": true,
  "messages": null,
  "errors": null,
  "warnings": null,
  "paxTitels": [
    {
      "titleCode": "MR",
      "titleName": "Mr."
    },
    {
      "titleCode": "MS",
      "titleName": "Ms."
    }
  ],
  "languages": [
    {
      "languageCode": "tr",
      "language": "Turkish"
    },
    {
      "languageCode": "ar",
      "language": "Arabic"
    },
    {
      "languageCode": "en",
      "language": "English"
    },
    {
      "languageCode": "fr",
      "language": "French"
    },
    {
      "languageCode": "ru",
      "language": "Russian"
    },
    {
      "languageCode": "es",
      "language": "Spanish"
    },
    {
      "languageCode": "it",
      "language": "Italian"
    },
    {
      "languageCode": "zh",
      "language": "chinese"
    }
  ]
}