{
    "success": true,
    "messages": null,
    "errors": null,
    "warnings": null,
    "loggedInCustomerDetails": {
        "title": "MR",
        "firstName": "Suneth",
        "lastName": "Abayarathna",
        "customerID": 581781,
        "emailId": "SUNETH89@GRR.LA"
    },
    "loggedInLmsDetails": {
        "availablePoints": 0,
        "ffid": "SUNETH89@GRR.LA",
        "emailConfirmed": true
    },
    "reservationList": [
        {
            "airlineCode": null,
            "marketingAirlineCode": null,
            "paxName": "Suneth, Abayarathna",
            "pnr": "41074476",
            "pnrStatus": "CNF",
            "segmentDetails": [
                {
                    "arrivalDateTime": "30 Jan 2016 05:10",
                    "departureDateTime": "30 Jan 2016 02:50",
                    "orignNDest": "Delhi / Sharjah",
                    "status": "CNF",
                    "departureDateLong": 1454082600000
                },
                {
                    "arrivalDateTime": "20 Jan 2016 17:30",
                    "departureDateTime": "20 Jan 2016 13:00",
                    "orignNDest": "Sharjah / Delhi",
                    "status": "ONH",
                    "departureDateLong": 1453260600000
                },
                {
                    "arrivalDateTime": "31 Jan 2016 03:30",
                    "departureDateTime": "30 Jan 2016 21:35",
                    "orignNDest": "Sharjah / Colombo",
                    "status": "CNF",
                    "departureDateLong": 1454155500000
                },
                {
                    "arrivalDateTime": "20 Jan 2016 07:15",
                    "departureDateTime": "20 Jan 2016 04:10",
                    "orignNDest": "Colombo / Sharjah",
                    "status": "CNF",
                    "departureDateLong": 1453223400000
                }
            ]
        },
        {
            "airlineCode": null,
            "marketingAirlineCode": null,
            "paxName": "Suneth, Abayarathna",
            "pnr": "41074614",
            "pnrStatus": "CNF",
            "segmentDetails": [
                {
                    "arrivalDateTime": "16 Dec 2015 07:15",
                    "departureDateTime": "16 Dec 2015 04:10",
                    "orignNDest": "Colombo / Sharjah",
                    "status": "CNF",
                    "departureDateLong": 1450199400000
                }
            ]
        },
        {
            "airlineCode": null,
            "marketingAirlineCode": null,
            "paxName": "Suneth, Abayarathna",
            "pnr": "41074469",
            "pnrStatus": "CNX",
            "segmentDetails": [
                {
                    "arrivalDateTime": "31 Dec 2015 09:00",
                    "departureDateTime": "31 Dec 2015 05:55",
                    "orignNDest": "Colombo / Sharjah",
                    "status": "CNX",
                    "departureDateLong": 1451501700000
                }
            ]
        }
    ],
    "loyaltyManagmentEnabled": true,
    "totalCustomerCredit": 597.4
}
