{
    "transactionId": "54b83928-48ed-44cf-bde1-401d397a19e1"
    , "success": true
    , "messages": null
    , "errors": null
    , "warnings": null
    , "selectedFlightPricing": {
    "transactionId": null
    , "success": false
    , "messages": null
    , "errors": null
    , "warnings": null
    , "fareRules": [{
        "bookingClass": "Y"
        , "ondCode": "CMB/SHJ"
        , "comment": null
        , "ondSequence": 0
    }]
    , "total": {
        "fare": 2230.00
        , "surcharge": 265.00
        , "tax": 98.00
        , "price": 2593.00
        , "discount": {
            "type": null
            , "amount": 0.00
        }
        , "paxWise": [{
            "paxType": "AD"
            , "total": 0.00
            , "fare": 2230.00
            , "surcharge": 265.00
            , "tax": 98.00
            , "noOfPax": 1
            , "totalFare": 2230.00
        }, {
            "paxType": "CH"
            , "total": 0.00
            , "fare": 2230.00
            , "surcharge": 265.00
            , "tax": 98.00
            , "noOfPax": 0
            , "totalFare": 0.00
        }, {
            "paxType": "IN"
            , "total": 0.00
            , "fare": 0.00
            , "surcharge": 265.00
            , "tax": 98.00
            , "noOfPax": 0
            , "totalFare": 0.00
        }]
    }
    , "ondOWPricing": [{
        "ondSequence": 0
        , "totalPrice": 2593.00
        , "totalSurcharges": 265.00
        , "totalTaxes": 98.00
        , "paxWise": [{
            "paxType": "AD"
            , "total": 0.00
            , "fare": 2230.00
            , "surcharge": 265.00
            , "tax": 98.00
            , "noOfPax": 1
            , "totalFare": 2230.00
        }]
    }]
    , "surcharges": [{
        "amount": 0.00
        , "applicablePaxTypes": ["AD"]
        , "carrierCode": "G9"
        , "surchargeCode": "SVCONNX"
    }, {
        "amount": 45.00
        , "applicablePaxTypes": ["AD"]
        , "carrierCode": "G9"
        , "surchargeCode": "YO"
    }, {
        "amount": 60.00
        , "applicablePaxTypes": ["AD"]
        , "carrierCode": "G9"
        , "surchargeCode": "YQ"
    }, {
        "amount": 160.00
        , "applicablePaxTypes": ["AD"]
        , "carrierCode": "G9"
        , "surchargeCode": "YQ3"
    }]
    , "taxes": [{
        "amount": 93.00
        , "applicablePaxTypes": ["AD"]
        , "carrierCode": "G9"
        , "taxCode": "SL"
    }, {
        "amount": 5.00
        , "applicablePaxTypes": ["AD"]
        , "carrierCode": "G9"
        , "taxCode": "API"
    }]
    , "promoInfo": []
}
    , "currency": "AED"
    , "paymentOptions": ["VISA", "MASTER", "QIWI_OFFLINE", "CASH", "QIWI"]
    , "fareClasses": [{
    "fareClassCode": "Y_B_23"
    , "fareClassId": 23
    , "rank": 3
    , "logicalCabinClass": "Y"
    , "freeServices": ["BAGGAGE", "SEAT_MAP", "MEAL"]
    , "imageUrl": "http://reservations.airarabia.com/GA/bundledFare_23_en.png"
    , "description": "NoFlexBundle"
    , "comment": ""
    , "fareClassType": "BUNDLE"
}, {
    "fareClassCode": "Y_D"
    , "fareClassId": null
    , "rank": null
    , "logicalCabinClass": "Y"
    , "freeServices": null
    , "imageUrl": "http://reservations.airarabia.com/GA/Y_N_en.png"
    , "description": "Promo Fare"
    , "comment": "Our cheapest available fare, modifications and cancellation are possible up to 24h prior to departure and subject to a fee."
    , "fareClassType": "DEFAULT"
}]
}