{
  "success":true,
  "data":{
    "fareTypeInfo":[
      {
        "fareTypeId":"1",
        "fareTypeName":"Promo Fare",
        "description":"THis ",
        "rank":"1",
        "uniqueIdentification":"css-color-class1"
      },
      {
        "fareTypeId":"2",
        "fareTypeName":"Flexi Fare",
        "description":"Promo fare details html string can assign",
        "rank":"2",
        "uniqueIdentification":"css-color-class2"
      },
      {
        "fareTypeId":"3",
        "fareTypeName":"Business Fare",
        "description":"Promo fare details html string can assign",
        "rank":"3",
        "uniqueIdentification":"css-color-class3"
      },
      {
        "fareTypeId":"4",
        "fareTypeName":"King Fare",
        "description":"Promo fare details html string can assign",
        "rank":"1",
        "uniqueIdentification":"css-color-class4"
      },
      {
        "fareTypeId":"5",
        "fareTypeName":"Premium Fare",
        "description":"Promo fare details html string can assign",
        "rank":"5",
        "uniqueIdentification":"css-color-class5"
      }
    ],
    "fareFareResults":[{
      "returnFlag":false,
      "flightRPH":"",
      "originCode":"SHJ",
      "originName":"Sharjah",
      "destinationCode":"CMB",
      "destinationName":"Colombo",
      "flightId":"501",
      "flightNumber":"G90501",
      "departureDate":"24/12/2015",
      "departureTime":"02:00",
      "arrivalDate":"24/12/2015",
      "arrivalTime":"07:30",
      "totalDuration":"06:00",
      "stops":[{
          "arrivalDate":"24/12/2015",
          "arrivalTime":"11:15",
          "departureDate":"24/12/2015",
          "departureTime":"04:15",
          "airportCode":"SHJ",
          "careerCode":"Air Arabia Egypt",
          "airportName":"Sharjah",
          "durationWaiting":"0:30",
          "flightRPH":"",
          "flightId":"",
          "flightNumber":"G90501"
      }],
      "flightFaresAvailability":[{
        "availableSeats":"4",
        "fareValue":"900",
        "fareTypeId":"5",
        "returnFare":true
      },{
        "availableSeats":"",
        "fareValue":"null",
        "fareTypeId":"2",
        "returnFare":false
      },{
        "availableSeats":"",
        "fareValue":"570",
        "fareTypeId":"",
        "returnFare":false
      },{
        "availableSeats":"",
        "fareValue":"650",
        "fareTypeId":"4",
        "returnFare":false
      },{
      "availableSeats":"2",
      "fareValue":"470",
      "fareTypeId":"",
      "returnFare":true
    }]
    },{
      "returnFlag":false,
      "flightRPH":"",
      "originCode":"SHJ",
      "originName":"Sharjah",
      "destinationCode":"CMB",
      "destinationName":"Colombo",
      "flightId":"502",
      "flightNumber":"G90501",
      "departureDate":"24/12/2015",
      "departureTime":"06:15",
      "arrivalDate":"24/12/2015",
      "arrivalTime":"00:15",
      "totalDuration":"06:20",
      "stops":[{
        "arrivalDate":"24/12/2015",
        "arrivalTime":"11:15",
        "departureDate":"24/12/2015",
        "departureTime":"04:15",
        "airportCode":"SHJ",
        "airportName":"Sharjah",
        "durationWaiting":"0:25"
      },{
          "arrivalDate":"24/12/2015",
          "arrivalTime":"11:15",
          "departureDate":"24/12/2015",
          "departureTime":"04:15",
          "airportCode":"SHJ",
          "airportName":"Sharjah",
          "durationWaiting":"0:20"
      },{
          "arrivalDate":"24/12/2015",
          "arrivalTime":"11:15",
          "departureDate":"24/12/2015",
          "departureTime":"04:15",
          "airportCode":"NSW",
          "careerCode":"Air Arabia Dubai",
          "airportName":"Sharjah",
          "durationWaiting":"0:20",
          "flightRPH":"",
          "flightId":"503",
          "flightNumber":"G90501"
      }],
      "flightFaresAvailability":[{
        "availableSeats":"2",
        "fareValue":"470",
        "fareTypeId":"1",
        "returnFare":false
      },{
        "availableSeats":"",
        "fareValue":"null",
        "fareTypeId":"2",
        "returnFare":false
      },{
        "availableSeats":"",
        "fareValue":"570",
        "fareTypeId":"",
        "returnFare":false
      },{
        "availableSeats":"",
        "fareValue":"650",
        "fareTypeId":"",
        "returnFare":true
      },{
        "availableSeats":"4",
        "fareValue":"900",
        "fareTypeId":"5",
        "returnFare":false
      }]
    },{
      "returnFlag":false,
      "flightRPH":"",
      "originCode":"SHJ",
      "originName":"Sharjah",
      "destinationCode":"CMB",
      "destinationName":"Colombo",
      "flightId":"503",
      "flightNumber":"G90501",
      "departureDate":"24/12/2015",
      "departureTime":"21:15",
      "arrivalDate":"24/12/2015",
      "arrivalTime":"3:15",
      "totalDuration":"06:40",
      "stops":[{
        "arrivalDate":"24/12/2015",
        "arrivalTime":"11:15",
        "departureDate":"24/12/2015",
        "departureTime":"04:15",
        "airportCode":"SHJ",
        "careerCode":"Air Arabia Morocco",
        "airportName":"Sharjah",
        "durationWaiting":"0:20",
        "flightRPH":"",
        "flightId":"",
        "flightNumber":""
      },{
          "arrivalDate":"24/12/2015",
          "arrivalTime":"11:15",
          "departureDate":"24/12/2015",
          "departureTime":"04:15",
          "airportCode":"NYP",
          "careerCode":"Air Arabia Egypt",
          "airportName":"Sharjah",
          "durationWaiting":"0:20",
          "flightRPH":"",
          "flightId":"",
          "flightNumber":""
      }

      ],
      "flightFaresAvailability":[{
        "availableSeats":"2",
        "fareValue":"470",
        "fareTypeId":"1",
        "returnFare":false
      },{
        "availableSeats":"",
        "fareValue":"null",
        "fareTypeId":"",
        "returnFare":false
      },{
        "availableSeats":"",
        "fareValue":"570",
        "fareTypeId":"",
        "returnFare":false
      },{
        "availableSeats":"",
        "fareValue":"650",
        "fareTypeId":"4",
        "returnFare":false
      },{
        "availableSeats":"4",
        "fareValue":"900",
        "fareTypeId":"",
        "returnFare":false
      }]
    }]
  }
}