{
  "success":true,
  "data":{
    "fareTypeInfo":[
      {
        "fareTypeId":"1",
        "fareTypeName":"Promo Fare",
        "description":"Our cheapest available fare<br/><a href='javascript:;'><h3>Compare Fare</h3><a/>",
        "rank":"1",
        "uniqueIdentification":"css-color-class1"
      },
      {
        "fareTypeId":"2",
        "fareTypeName":"Flexi Fare",
        "description":"Promo fare details html string can assign",
        "rank":"2",
        "uniqueIdentification":"css-color-class2"
      },
      {
        "fareTypeId":"3",
        "fareTypeName":"Business Fare",
        "description":"Promo fare details html string can assign",
        "rank":"3",
        "uniqueIdentification":"css-color-class3"
      },
      {
        "fareTypeId":"4",
        "fareTypeName":"King Fare",
        "description":"Promo fare details html string can assign",
        "rank":"1",
        "uniqueIdentification":"css-color-class4"
      },
      {
        "fareTypeId":"5",
        "fareTypeName":"Premium Fare",
        "description":"Promo fare details html string can assign",
        "rank":"5",
        "uniqueIdentification":"css-color-class5"
      }
    ],
    "fareFareResults":[{
      "returnFlag":false,
      "flightRPH":"",
      "originCode":"CMB",
      "originName":"Colombo",
      "destinationCode":"SHJ",
      "destinationName":"Sharjah",
      "flightId":"501",
      "flightNumber":"G90501",
      "departureDate":"24/12/2015",
      "departureTime":"04:15",
      "arrivalDate":"24/12/2015",
      "arrivalTime":"11:15",
      "totalDuration":"05:00",
      "stops":[],
      "flightFaresAvailability":[{
        "availableSeats":"4",
        "fareValue":"900",
        "fareTypeId":"5",
        "returnFare":true
      },{
        "availableSeats":"",
        "fareValue":"null",
        "fareTypeId":"2",
        "returnFare":false
      },{
        "availableSeats":"",
        "fareValue":"570",
        "fareTypeId":"3",
        "returnFare":false
      },{
        "availableSeats":"",
        "fareValue":"650",
        "fareTypeId":"4",
        "returnFare":false
      },{
      "availableSeats":"2",
      "fareValue":"470",
      "fareTypeId":"1",
      "returnFare":true
    }]
    },{
      "returnFlag":false,
      "flightRPH":"",
      "originCode":"CMB",
      "originName":"Colombo",
      "destinationCode":"SHJ",
      "destinationName":"Sharjah",
      "flightId":"502",
      "flightNumber":"G90501",
      "departureDate":"24/12/2015",
      "departureTime":"04:15",
      "arrivalDate":"24/12/2015",
      "arrivalTime":"11:15",
      "totalDuration":"05:20",
      "stops":[{
        "arrivalDate":"24/12/2015",
        "arrivalTime":"11:15",
        "departureDate":"24/12/2015",
        "departureTime":"04:15",
        "airportCode":"SHJ",
        "airportName":"Sharjah",
        "durationWaiting":"0:25"
      }],
      "flightFaresAvailability":[{
        "availableSeats":"2",
        "fareValue":"470",
        "fareTypeId":"1",
        "returnFare":false
      },{
        "availableSeats":"",
        "fareValue":"null",
        "fareTypeId":"2",
        "returnFare":false
      },{
        "availableSeats":"",
        "fareValue":"570",
        "fareTypeId":"3",
        "returnFare":false
      },{
        "availableSeats":"",
        "fareValue":"650",
        "fareTypeId":"4",
        "returnFare":true
      },{
        "availableSeats":"4",
        "fareValue":"900",
        "fareTypeId":"5",
        "returnFare":false
      }]
    },{
      "returnFlag":false,
      "flightRPH":"",
      "originCode":"CMB",
      "originName":"Colombo",
      "destinationCode":"SHJ",
      "destinationName":"Sharjah",
      "flightId":"503",
      "flightNumber":"G90501",
      "departureDate":"24/12/2015",
      "departureTime":"04:15",
      "arrivalDate":"24/12/2015",
      "arrivalTime":"11:15",
      "totalDuration":"05:20",
      "stops":[{
        "arrivalDate":"24/12/2015",
        "arrivalTime":"11:15",
        "departureDate":"24/12/2015",
        "departureTime":"04:15",
        "airportCode":"SHJ",
        "careerCode":"Air Arabia Morocco",
        "airportName":"Sharjah",
        "durationWaiting":"0:25",
        "flightRPH":"",
        "flightId":"",
        "flightNumber":""
      },{
          "arrivalDate":"24/12/2015",
          "arrivalTime":"11:15",
          "departureDate":"24/12/2015",
          "departureTime":"04:15",
          "airportCode":"NSW",
          "careerCode":"Air Arabia Dubai",
          "airportName":"Sharjah",
          "durationWaiting":"0:25",
          "flightRPH":"",
          "flightId":"503",
          "flightNumber":"G90501"
      }],
      "flightFaresAvailability":[{
        "availableSeats":"2",
        "fareValue":"470",
        "fareTypeId":"1",
        "returnFare":false
      },{
        "availableSeats":"",
        "fareValue":"null",
        "fareTypeId":"2",
        "returnFare":false
      },{
        "availableSeats":"",
        "fareValue":"570",
        "fareTypeId":"3",
        "returnFare":false
      },{
        "availableSeats":"",
        "fareValue":"650",
        "fareTypeId":"4",
        "returnFare":false
      },{
        "availableSeats":"4",
        "fareValue":"900",
        "fareTypeId":"5",
        "returnFare":false
      }]
    }]
  }
}