[
    {
        "policyID" : "1",
        "isSelected" : true,
        "name" : "Tune Protect Travel Protection",
        "companyName" : "Air Arabia",
        "headingTxt":"Select Tune Protect Platinum for just ",
        "description" : "You will enjoy great coverage that includes:",
        "amount" : "45",
        "thingsCovered" : "<ul><li thingscovered=\"\" ng-repeat=\"item in opt.thingsCovered\" class=\"ng-binding ng-scope\">USD 50,000 for Accidental and Sickness Medical Reimbursement</li><li thingscovered=\"\" ng-repeat=\"item in opt.thingsCovered\" class=\"ng-binding ng-scope\">USD 20,000 for Emergency Medical Evacuation &amp; Repatriation</li><li thingscovered=\"\" ng-repeat=\"item in opt.thingsCovered\" class=\"ng-binding ng-scope\">USD 3,000 for Travel Cancellation or Curtailment</li></ul>",
        "termsAndConditions" : "<p class=\"conditions ng-binding\"><sup class=\"red\">*</sup>Tune Protect Travel Insurance by Air Arabia is underwritten by Orient Insurance Co PJSC. Click here to view the Tune Protect Travel Insurance by Air Arabia Terms &amp;; Conditions</p>"
    },
        {
            "policyID" : "2",
            "isSelected" : true,
            "name" : "Tune Protect Missed Departure Insurance",
            "companyName" : "Air Arabia",
            "headingTxt" : "Select Missed Flight Insurance for just ",
            "description" : "If you miss your flight for any reason, we will offer you",
            "amount" : "36",
            "thingsCovered" : "<ul><li thingscovered=\"\" ng-repeat=\"item in opt.thingsCovered\" class=\"ng-binding ng-scope\">USD 50,000 for Accidental and Sickness Medical Reimbursement</li><li thingscovered=\"\" ng-repeat=\"item in opt.thingsCovered\" class=\"ng-binding ng-scope\">USD 20,000 for Emergency Medical Evacuation &amp; Repatriation</li><li thingscovered=\"\" ng-repeat=\"item in opt.thingsCovered\" class=\"ng-binding ng-scope\">USD 3,000 for Travel Cancellation or Curtailment</li></ul>",
            "termsAndConditions" : "<p class=\"conditions ng-binding\"><sup class=\"red\">*</sup>Tune Protect Travel Insurance by Air Arabia is underwritten by Orient Insurance Co PJSC. Click here to view the Tune Protect Travel Insurance by Air Arabia Terms &amp;; Conditions</p>"
        }
]