{"success": true, "messages": null, "errors": null, "warnings": null, "balanceSummary": {

    "chargeBreakdown": [
        {
            "type": "AIR_FARE",
            "amount": "260.00 "
        },
        {
            "type": "TAX",
            "amount": "98.00 "
        },
        {
            "type": "SURCHARGE",
            "amount": "530.00 "
        },
        {
            "type": "SEAT",
            "amount": "10.00 "
        },
        {
            "type": "MEAL",
            "amount": "120.00 "
        },
        {
            "type": "BAGGAGE",
            "amount": "180.00 "
        },
        {
            "type": "HALA",
            "amount": "230.00 "
        },
        {
            "type": "ADMIN",
            "amount": "41.49 "
        },
        {
            "type": "PROMO",
            "amount": "-45.00"
        },
        {
            "type": "TOTAL_PAID",
            "amount": "1424.49"
        },
        {
            "type": "TOTAL_IN_SELECTED",
            "amount": "1424.49"
        }
    ],
    "totalCharges": "1469.49",
    "totalPayment": "1424.49",
    "totalCredits": "0.00",
    "paxWisePayments": [
        {
            "paymantInfo": [
                {
                    "date": null,
                    "paidCurrency": "AED",
                    "paymentAmount": "1424.49",
                    "amountInPaidCurrency": "1424.49",
                    "paymentMethod": null
                }
            ],
            "paxSequence": 1
        }
    ],
    "paxWiseCredits": [
        {
            "creditInfo": [],
            "paxSequence": 1
        }
    ]
}, "bookingInfoTO": {
    "pnr": "41078452",
    "status": "CNF",
    "groupPnr": false,
    "agent": null,
    "bookingDate": "2016-02-05T11:54:32",
    "prefferedLanguage": "en",
    "releaseDate": "2016-02-05T11:54:32",
    "expiryDays": 0,
    "version": "0",
    "policyCode": null,
    "travelerQuantity": {
        "adultCount": 1,
        "childCount": 0,
        "infantCount": 0
    }
}, "passengers": [
    {
        "paxSequence": 1,
        "title": "MR",
        "firstName": "sumuduss",
        "lastName": "jayasinghe",
        "nationality": "Salvadoran",
        "paxType": "adult",
        "dateOfBirth": "1986-02-12T00:00:00",
        "travelWith": 0,
        "additionalInfo": {
            "ffid": null,
            "nic": null,
            "foidInfo": {
                "foidNumber": null,
                "foidExpiry": null,
                "foidPlace": null,
                "placeOfBirth": null
            },
            "docInfo": {
                "travelDocumentType": null,
                "docNumber": null,
                "docPlaceOfIssue": null,
                "docIssueDate": null,
                "applicableCountry": null
            }
        },
        "extras": [
            {
                "flightSegmentCode": "CMB/SHJ",
                "flightDesignator": "G9502",
                "seat": "13C",
                "meal": "1X Blini 1X Chicken Tikka Omlette Tray 1X Egg Omlette ",
                "baggage": "30 Kg"
            },
            {
                "flightSegmentCode": "SHJ/CMB",
                "flightDesignator": "G9503",
                "seat": "17D",
                "meal": "1X Chicken Nashif 1X Falafel 1X Chicken Fajita Wrap 2X Chicken Caesar Salad ",
                "baggage": "30 Kg"
            }
        ],
        "passengerWiseSelectedAncillaries": [
            {
                "ancillaryType": "SSR_AIRPORT",
                "ancillaryScopes": [
                    {
                        "scope": {
                            "scopeType": "AIRPORT",
                            "scopeType": "AIRPORT",
                            "flightSegmentRPH": "0",
                            "point": "",
                            "airportCode": "SHJ"
                        },
                        "ancillaries": [
                            {
                                "id": "QE",
                                "quantity": 1,
                                "input": null,
                                "amount": null,
                                "amendments": null
                            }
                        ],
                        "amendments": null
                    },
                    {
                        "scope": {
                            "scopeType": "AIRPORT",
                            "scopeType": "AIRPORT",
                            "flightSegmentRPH": "1",
                            "point": "",
                            "airportCode": "SHJ"
                        },
                        "ancillaries": [
                            {
                                "id": "MASD",
                                "quantity": 1,
                                "input": null,
                                "amount": null,
                                "amendments": null
                            },
                            {
                                "id": "QCI",
                                "quantity": 1,
                                "input": null,
                                "amount": null,
                                "amendments": null
                            }
                        ],
                        "amendments": null
                    }
                ],
                "amendments": null
            },
            {
                "ancillaryType": "SEAT",
                "ancillaryScopes": [
                    {
                        "scope": {
                            "scopeType": "SEGMENT",
                            "scopeType": "SEGMENT",
                            "flightSegmentRPH": "0"
                        },
                        "ancillaries": [
                            {
                                "id": "13C",
                                "quantity": 1,
                                "input": null,
                                "amount": 5,
                                "amendments": null
                            }
                        ],
                        "amendments": null
                    },
                    {
                        "scope": {
                            "scopeType": "SEGMENT",
                            "scopeType": "SEGMENT",
                            "flightSegmentRPH": "1"
                        },
                        "ancillaries": [
                            {
                                "id": "17D",
                                "quantity": 1,
                                "input": null,
                                "amount": 5,
                                "amendments": null
                            }
                        ],
                        "amendments": null
                    }
                ],
                "amendments": null
            },
            {
                "ancillaryType": "BAGGAGE",
                "ancillaryScopes": [
                    {
                        "scope": {
                            "scopeType": "OND",
                            "scopeType": "OND",
                            "ondId": "186944479"
                        },
                        "ancillaries": [
                            {
                                "id": "7232|30 Kg|",
                                "quantity": 1,
                                "input": null,
                                "amount": 90,
                                "amendments": null
                            }
                        ],
                        "amendments": null
                    },
                    {
                        "scope": {
                            "scopeType": "OND",
                            "scopeType": "OND",
                            "ondId": "186944479"
                        },
                        "ancillaries": [
                            {
                                "id": "7232|30 Kg|",
                                "quantity": 1,
                                "input": null,
                                "amount": 90,
                                "amendments": null
                            }
                        ],
                        "amendments": null
                    },
                    {
                        "scope": {
                            "scopeType": "OND",
                            "scopeType": "OND",
                            "ondId": "186944480"
                        },
                        "ancillaries": [
                            {
                                "id": "7232|30 Kg|",
                                "quantity": 1,
                                "input": null,
                                "amount": 90,
                                "amendments": null
                            }
                        ],
                        "amendments": null
                    }
                ],
                "amendments": null
            },
            {
                "ancillaryType": "MEAL",
                "ancillaryScopes": [
                    {
                        "scope": {
                            "scopeType": "SEGMENT",
                            "scopeType": "SEGMENT",
                            "flightSegmentRPH": "0"
                        },
                        "ancillaries": [
                            {
                                "id": "BLBF",
                                "quantity": 1,
                                "input": null,
                                "amount": 12,
                                "amendments": null
                            },
                            {
                                "id": "CTBF",
                                "quantity": 1,
                                "input": null,
                                "amount": 18,
                                "amendments": null
                            },
                            {
                                "id": "EGGOM",
                                "quantity": 1,
                                "input": null,
                                "amount": 15,
                                "amendments": null
                            }
                        ],
                        "amendments": null
                    },
                    {
                        "scope": {
                            "scopeType": "SEGMENT",
                            "scopeType": "SEGMENT",
                            "flightSegmentRPH": "1"
                        },
                        "ancillaries": [
                            {
                                "id": "NASHIF",
                                "quantity": 1,
                                "input": null,
                                "amount": 10,
                                "amendments": null
                            },
                            {
                                "id": "FALAFE",
                                "quantity": 1,
                                "input": null,
                                "amount": 10,
                                "amendments": null
                            },
                            {
                                "id": "CFAJIT",
                                "quantity": 1,
                                "input": null,
                                "amount": 15,
                                "amendments": null
                            },
                            {
                                "id": "CSALAD",
                                "quantity": 2,
                                "input": null,
                                "amount": 20,
                                "amendments": null
                            }
                        ],
                        "amendments": null
                    }
                ],
                "amendments": null
            }
        ]
    }
], "modificationParams": {
    "segmentModificationParams": [
        {
            "reservationSegmentRPH": "2",
            "cancellable": false,
            "modifible": true,
            "modifibleByDate": true,
            "modifibleByRoute": true
        },
        {
            "reservationSegmentRPH": "3",
            "cancellable": false,
            "modifible": true,
            "modifibleByDate": true,
            "modifibleByRoute": true
        }
    ],
    "paxModificationParams": [
        {
            "paxSequence": 1,
            "nameEditable": true
        }
    ]
}, "reservationSegments": [
    {
        "seatType": "NORMAL",
        "cabinClass": "Y",
        "checkInClosingTime": 0,
        "checkInTimeGap": 180,
        "reservationSegmentRPH": "2",
        "segment": {
            "departureDateTime": {
                "local": "2016-02-29T21:35:00",
                "zulu": "2016-02-29T17:35:00"
            },
            "arrivalDateTime": {
                "local": "2016-03-01T03:30:00",
                "zulu": "2016-02-29T22:00:00"
            },
            "departureTerminal": null,
            "arrivalTerminal": null,
            "carrierCode": "G9",
            "operatingCarrier": null,
            "journeyType": "INTERNATIONAL",
            "duration": "04:25",
            "travelMode": null,
            "filghtDesignator": "G9503",
            "equipmentModelNumber": "A320",
            "equipmentModelInfo": "Airbus A320",
            "flightSegmentRPH": "1",
            "segmentCode": "SHJ/CMB",
            "routeRefNumber": null
        },
        "fareGroupID": "2",
        "journeySequence": "2",
        "logicalCabinClass": "Y",
        "openReturnConfirmBefore": null,
        "openReturnSegment": false,
        "openReturnTravelExpiry": null,
        "segmentSequence": 2,
        "operationType": 0,
        "status": "CNF",
        "subStatus": "",
        "standardStatus": null
    },
    {
        "seatType": "NORMAL",
        "cabinClass": "Y",
        "checkInClosingTime": 0,
        "checkInTimeGap": 180,
        "reservationSegmentRPH": "3",
        "segment": {
            "departureDateTime": {
                "local": "2016-02-20T05:55:00",
                "zulu": "2016-02-20T00:25:00"
            },
            "arrivalDateTime": {
                "local": "2016-02-20T09:00:00",
                "zulu": "2016-02-20T05:00:00"
            },
            "departureTerminal": null,
            "arrivalTerminal": null,
            "carrierCode": "G9",
            "operatingCarrier": null,
            "journeyType": "INTERNATIONAL",
            "duration": "04:35",
            "travelMode": null,
            "filghtDesignator": "G9502",
            "equipmentModelNumber": "A320",
            "equipmentModelInfo": "Airbus A320",
            "flightSegmentRPH": "0",
            "segmentCode": "CMB/SHJ",
            "routeRefNumber": null
        },
        "fareGroupID": "1",
        "journeySequence": "1",
        "logicalCabinClass": "Y",
        "openReturnConfirmBefore": null,
        "openReturnSegment": false,
        "openReturnTravelExpiry": null,
        "segmentSequence": 1,
        "operationType": 0,
        "status": "CNX",
        "subStatus": "",
        "standardStatus": null
    }
], "flexiInfoList": null, "contactInfo": {
    "title": "MR",
    "firstName": "sumudu",
    "lastName": "jayasinghe",
    "nationality": 655,
    "address": {
        "streetAddress1": null,
        "streetAddress2": null,
        "city": null,
        "zipCode": null
    },
    "zipCode": null,
    "country": "AS",
    "preferredLangauge": "en",
    "emailAddress": null,
    "mobileNumber": {
        "countryCode": "684",
        "areaCode": "23",
        "number": "232323"
    },
    "telephoneNumber": null,
    "fax": null,
    "emergencyContact": {
        "emgnTitle": null,
        "emgnFirstName": null,
        "emgnLastName": null,
        "emgnPhoneNumber": null,
        "emgnEmail": null
    }
}, "promoTypeInfo": {
    "creditPromo": false,
    "moneyPromo": true
}, "reservationAlerts": [], "paxTicketCoupons": [
    {
        "paxSequence": 1,
        "reservationSegmentTicketCoupons": [
            {
                "flightSegmentRPH": "0",
                "eTicketNo": "5142365243755",
                "couponNo": null,
                "eTicketStatus": "O",
                "externalETicketNo": null,
                "externalCouponNo": null,
                "externalCouponStatus": null,
                "externalCouponControl": null,
                "paxStatus": "C"
            },
            {
                "flightSegmentRPH": "1",
                "eTicketNo": "5142365243755",
                "couponNo": null,
                "eTicketStatus": "O",
                "externalETicketNo": null,
                "externalCouponNo": null,
                "externalCouponStatus": null,
                "externalCouponControl": null,
                "paxStatus": "C"
            }
        ]
    }
], "metaData": {
    "ondPreferences": [
        {
            "ondId": "186944480",
            "flightSegmentRPH": ["1"]
        },
        {
            "ondId": "186944479",
            "flightSegmentRPH": ["0"]
        }
    ],
    "monetaryAmendmentDefinitions": null
}, "reservationWiseSelectedAncillary": null}