{
    "baseCurr": "AED"
    , "contactInfo": {
        "addresStreet": null
        , "addresline": null
        , "city": null
        , "country": null
        , "countryName": null
        , "customerId": null
        , "emailAddress": "NISHANTHA.PERERA@GMAIL.COM"
        , "emailLanguage": ""
        , "emgnEmail": null
        , "emgnFirstName": null
        , "emgnLArea": null
        , "emgnLCountry": null
        , "emgnLNumber": null
        , "emgnLastName": null
        , "emgnTitle": null
        , "fArea": ""
        , "fCountry": ""
        , "fNumber": ""
        , "firstName": "Nishantha"
        , "lArea": ""
        , "lCountry": ""
        , "lNumber": ""
        , "lastName": "Perera"
        , "mArea": ""
        , "mCountry": ""
        , "mNumber": ""
        , "nationality": "670"
        , "preferredLangauge": null
        , "state": null
        , "title": "MR"
        , "updateCustomerProf": false
        , "zipCode": null
    }
    , "custProfile": "arrProfile = new Array('MR','Nishantha','Perera','','','--','94--777132456','','--','','NISHANTHA.PERERA@GMAIL.COM','LK','670','');"
    , "customer": {
        "addressLine": null
        , "addressStreet": null
        , "alternativeEmailId": null
        , "city": null
        , "confirmationDate": null
        , "countryCode": null
        , "customerID": 0
        , "customerQuestionaireDTO": null
        , "dateOfBirth": null
        , "emailId": "NISHANTHA.PERERA@GMAIL.COM"
        , "emgnEmail": null
        , "emgnFirstName": null
        , "emgnLastName": null
        , "emgnPhoneNo": null
        , "emgnTitle": null
        , "fax": null
        , "firstName": "Nishantha"
        , "gender": null
        , "lastName": "Perera"
        , "loyaltyAccountExist": false
        , "loyaltyAccountNumber": null
        , "mobile": null
        , "nationalityCode": null
        , "officeTelephone": null
        , "password": null
        , "profilePicUrl": null
        , "registrationDate": null
        , "secretAnswer": null
        , "secretQuestion": null
        , "socialCustomerTypeId": -1
        , "socialSiteCustId": "-1"
        , "status": null
        , "telephone": null
        , "title": "MR"
        , "version": null
        , "zipCode": null
    }
    , "joinLms": null
    , "lmsDetails": {
        "appCode": null
        , "availablePoints": null
        , "dateOfBirth": "10\/12\/1988"
        , "emailId": "Nishantha.Perera@GMAIL.COM"
        , "emailStatus": "N"
        , "firstName": "Nishantha"
        , "genderCode": null
        , "headOFEmailId": ""
        , "language": "en"
        , "lastName": "Perera"
        , "middleName": ""
        , "mobileNumber": null
        , "nationalityCode": "670"
        , "passportNum": ""
        , "phoneNumber": null
        , "refferedEmail": ""
        , "residencyCode": "LK"
    }
    , "loginSuccess": true
    , "socialLogin": false
    , "totalCustomerCredit": "0.00"
    , "txtUname": "mr. Nishantha Perera"
}
