{   "transactionId": "509b2779-a9a7-49c6-8bf7-51a84ab0e003",
    "ancillarySummeryList": [
    {
        "anciType": "BAGGAGE",
        "selected": true,
        "available": false,
        "editable": true,
        "totalAmount": 180.00
    },
    {
        "anciType": "SEAT",
        "selected": true,
        "available": true,
        "editable": true,
        "totalAmount": 5.00
    },
    {
        "anciType": "SSR_IN_FLIGHT",
        "selected": false,
        "available": true,
        "editable": true,
        "totalAmount": null
    },
    {
        "anciType": "MEAL",
        "selected": true,
        "available": true,
        "editable": true,
        "totalAmount": 35.00
    },
    {
        "anciType": "SSR_AIRPORT",
        "selected": true,
        "available": true,
        "editable": true,
        "totalAmount": 390.00
    }
]}