{
  "success": true,
  "messages": null,
  "errors": null,
  "warnings": null,
  "paymentStatus": "PENDING",
  "actionStatus": "ONHOLD_CREATED_CASH",
  "pnr": "41077543",
  "externalPGDetails": null,
  "contactDetailsValidation": null,
  "paxInfoValidation": null
}