{
  "success": true,
  "messages": null,
  "errors": null,
  "warnings": null,
  "transactionId": "78HJ23ko2923",
  "totalAmount":818.50,
  "hasPromoOption": true,
  "lmsOptions":{
    "airRewardId":"shiran@gmail.com",
    "lmsRedeemed":true,
    "redeemedAmount":7000
  },
  "paymentOptions": [{
    "cardType": 1,
    "cardName": "MASTER",
    "cssClass": "MASTER",
    "displayName": "MASTER",
    "cardCvv": 0,
    "cardHoldersName": null,
    "cardNo": null,
    "expiryDate": null,
    "paymentAmount": null,
    "paymentGateway":{
      "gatewayId": 4,
      "providerName": "OGONE",
      "paymentCurrency": "AED",
      "providerCode": "OGONE",
      "description": null,
      "brokerType": "internal-external",
      "switchToExternalUrl": false,
      "viewPaymentInIframe": false,
      "effectivePaymentAmount": {
        "paymentCurrencyValue": 100.63,
        "baseCurrencyValue": 100.63
      },
      "transactionFee": {
        "paymentCurrencyValue": 25.95,
        "baseCurrencyValue": 25.95
      }
    }
  },
    {
      "cardType": 5,
      "cardName": "PayFort Pay@Store",
      "displayName": "PayFort Pay@Store",
      "cssClass": "PAYFORT",
      "cardCvv": 0,
      "cardHoldersName": null,
      "cardNo": null,
      "expiryDate": null,
      "paymentAmount": null,
      "paymentGateway": {
        "gatewayId": 4,
        "providerName": "OGONE",
        "paymentCurrency": "AED",
        "providerCode": "OGONE",
        "description": null,
        "brokerType": "external",
        "switchToExternalUrl": false,
        "viewPaymentInIframe": false,
        "effectivePaymentAmount": {
          "paymentCurrencyValue": 100.63,
          "baseCurrencyValue": 100.63
        },
        "transactionFee": {
          "paymentCurrencyValue": 25.95,
          "baseCurrencyValue": 25.95
        }
      }
    },
    {
      "cardType": 0,
      "cardName": "Cash",
      "cssClass": "CASH",
      "displayName": "Cash Payment",
      "additionalInfo": {
        "onHoldTime": "11:59:00",
        "payPartners":[
          {
            "partnerName":"xxxx",
            "country":"AE"
          }
        ]
      },
      "paymentGateway": {
        "gatewayId": 0,
        "providerName": null,
        "paymentCurrency": "AED",
        "providerCode": null,
        "description": null,
        "brokerType": "external",
        "switchToExternalUrl": false,
        "viewPaymentInIframe": false,
        "effectivePaymentAmount": {
          "paymentCurrencyValue": 100.63,
          "baseCurrencyValue": 100.63
        },
        "transactionFee": {
          "paymentCurrencyValue": 0,
          "baseCurrencyValue": 0
        }
      }
    }]
}