{
  "pax": 4,
  "outbound": "CMB to SHA",
  "inbound": "SHA to CMB",
  "flightCost": "2000.00",
  "extraCost": "1000.00",
  "totalCost": "3000.00",
  "flights": [
    {
      "to": "SHA",
      "from": "CMB",
      "direction": "in",
      "totalFare": "3000.00",
      "charges": [
        {
          "desc": "Airport taxes and Surcharge",
          "amount": "1000.00",
          "currency": "AED"
        },
        {
          "desc": "Flight",
          "amount": "1000.00",
          "currency": "AED"
        }
      ],
      "discounts": [
        {
          "desc": "Airport taxes and Surcharge",
          "amount": "1000.00",
          "currency": "AED"
        }
      ]
    },
    {
      "to": "CMB",
      "from": "SHA",
      "direction": "out",
      "totalFare": "3000.00",
      "charges": [
        {
          "desc": "Airport taxes and Surcharge",
          "amount": "1000.00",
          "currency": "AED"
        }
      ]
    }
  ]
}