{
  "success":true,
  "data":{
    "searchCriteria":{},
    "results": {
      "date":"22/12/2015",
      "fareValue":435,
      "available":true,
      "selected":false,
      "flights":[]
    }
  }
}