{
  "code": "OE",
  "clientConfigs": {
    "showFareRule": true,
    "showExtras": true,
    "showPaxMsg":true,
    "isCallCenterAvailable":false
  },
  "airline": {
    "name": "CairoAviation",
    "Id": "MHA",
    "carriers": [
      "OE"
    ]
  },
  "airlines": {
    "OE": "Cairo Aviation",
    "1A": "Amadeus Global Travel Distribution",
    "UF": "Ukraine Mediterranee Airline",
    "6Q": "Cham Wings",
    "A1": "MAB Airline",
    "KW": "Wataniya"
  }
}