<?xml version="1.0" encoding="iso-8859-1"?>
<!-- Generator: Adobe Illustrator 19.2.0, SVG Export Plug-In . SVG Version: 6.00 Build 0)  -->
<svg version="1.0" id="Layer_1" xmlns="http://www.w3.org/2000/svg" xmlns:xlink="http://www.w3.org/1999/xlink" x="0px" y="0px"
	 viewBox="0 0 6.486 9.499" style="enable-background:new 0 0 6.486 9.499;" xml:space="preserve">
<g>
	<path style="fill:#B4B4B4;" d="M1.25,9.499h3.986c0.69,0,1.25-0.56,1.25-1.25V1.25c0-0.69-0.56-1.25-1.25-1.25H1.25
		C0.56,0,0,0.56,0,1.25v6.998C0,8.939,0.56,9.499,1.25,9.499z"/>
	<g>
		<g>
			<path style="opacity:0.36;fill:none;stroke:#FFFFFF;stroke-width:0.5;stroke-miterlimit:10;" d="M5.931,0H0.706v3.432
				c0,0.624,0.506,1.129,1.129,1.129L4.802,4.56c0.623,0,1.129-0.506,1.129-1.129V0z"/>
		</g>
		<g>
			<path style="opacity:0.36;fill:none;stroke:#FFFFFF;stroke-width:0.5;stroke-miterlimit:10;" d="M0.706,9.499h5.225V8.347
				c0-0.624-0.506-1.129-1.129-1.129L1.835,7.219c-0.623,0-1.129,0.506-1.129,1.129V9.499z"/>
		</g>
	</g>
	<path style="fill:#FFFFFF;" d="M3.243,2.069c-1.24,0-2.246,1.006-2.246,2.247c0,1.24,1.006,2.246,2.246,2.246
		S5.49,5.556,5.49,4.316C5.49,3.075,4.483,2.069,3.243,2.069z M1.536,4.316c0-0.935,0.773-1.707,1.707-1.707
		c0.377,0,0.719,0.126,1.006,0.323l-2.39,2.39C1.662,5.034,1.536,4.693,1.536,4.316z M3.243,6.023c-0.377,0-0.719-0.126-1.006-0.324
		l2.39-2.39C4.825,3.597,4.95,3.938,4.95,4.316C4.95,5.25,4.178,6.023,3.243,6.023z"/>
</g>
</svg>
