<?xml version="1.0" encoding="iso-8859-1"?>
<!-- Generator: Adobe Illustrator 19.2.0, SVG Export Plug-In . SVG Version: 6.00 Build 0)  -->
<svg version="1.1" id="Layer_1" xmlns="http://www.w3.org/2000/svg" xmlns:xlink="http://www.w3.org/1999/xlink" x="0px" y="0px"
	 viewBox="0 0 5.311 7.778" style="enable-background:new 0 0 5.311 7.778;" xml:space="preserve">
<path style="fill:#EC1D25;" d="M1.024,7.778h3.264c0.565,0,1.024-0.458,1.024-1.024V1.024C5.311,0.458,4.853,0,4.288,0H1.024
	C0.458,0,0,0.458,0,1.024v5.731C0,7.32,0.458,7.778,1.024,7.778z"/>
<g>
	<g>
		<path style="opacity:0.36;fill:none;stroke:#FFFFFF;stroke-width:0.5;stroke-miterlimit:10;" d="M4.778,0H0.5v2.811
			c0,0.511,0.414,0.925,0.925,0.924l2.429-0.001c0.51,0,0.924-0.414,0.924-0.924V0z"/>
	</g>
	<g>
		<path style="opacity:0.36;fill:none;stroke:#FFFFFF;stroke-width:0.5;stroke-miterlimit:10;" d="M0.5,7.778h4.278V6.835
			c0-0.511-0.414-0.925-0.925-0.924L1.424,5.911c-0.51,0-0.924,0.414-0.924,0.924V7.778z"/>
	</g>
</g>
<path style="fill:#FFFFFF;" d="M4.489,3.809c0,1.056-0.892,1.903-1.964,1.829C1.621,5.576,0.889,4.843,0.826,3.939
	C0.753,2.868,1.6,1.975,2.656,1.975c0.429,0,0.823,0.148,1.135,0.394c0.06,0.048,0.117,0.099,0.171,0.153
	c0.098,0.099,0.184,0.21,0.257,0.329c0.014,0.022,0.01,0.052-0.009,0.071L3.903,3.23L2.652,4.481c-0.067,0.067-0.176,0.067-0.243,0
	L2.368,4.44L2.256,4.328l-0.05-0.05L1.72,3.792c-0.045-0.045-0.045-0.117,0-0.162l0.162-0.162c0.045-0.045,0.117-0.045,0.162,0
	l0.486,0.486l1.107-1.107c-0.054-0.055-0.112-0.105-0.174-0.15C3.212,2.514,2.897,2.414,2.557,2.437
	c-0.672,0.047-1.219,0.589-1.272,1.26C1.218,4.543,1.917,5.244,2.762,5.18C3.437,5.13,3.983,4.579,4.028,3.903
	c0.009-0.14-0.002-0.275-0.032-0.404C3.991,3.48,3.997,3.46,4.011,3.446l0.277-0.277c0.03-0.03,0.081-0.018,0.095,0.022
	C4.452,3.384,4.489,3.592,4.489,3.809z"/>
</svg>
