<svg xmlns="http://www.w3.org/2000/svg" xmlns:xlink="http://www.w3.org/1999/xlink" preserveAspectRatio="xMidYMid" width="120" height="17" viewBox="0 0 120 17">
  <defs>
    <style>
      .cls-1 {
        fill: #919191;
        opacity: 0.3;
      }

      .cls-2 {
        fill: #ed0000;
        fill-rule: evenodd;
      }
    </style>
  </defs>
  <g>
    <rect y="7" width="98" height="3" class="cls-1"/>
    <path d="M114.969,7.469 C116.830,7.469 117.993,7.608 118.807,7.720 C119.592,7.859 120.000,8.110 120.000,8.361 C120.000,8.751 119.592,8.862 118.807,9.113 C118.022,9.253 116.685,9.364 114.969,9.364 L113.254,11.649 L112.585,12.541 L111.393,14.074 L110.724,14.966 C110.317,15.718 109.793,16.220 109.415,16.498 C109.008,16.749 108.485,17.000 107.961,17.000 L107.700,17.000 C108.485,15.356 109.154,13.823 109.677,12.569 C110.200,11.315 110.462,10.423 110.462,10.033 C110.462,9.643 109.677,9.392 108.223,9.280 C107.031,9.280 106.100,9.141 105.199,9.030 C105.054,9.169 104.792,9.420 104.530,9.782 C104.268,10.172 103.861,10.674 103.338,11.315 C103.076,11.315 102.931,11.454 102.669,11.454 C102.408,11.454 102.262,11.593 102.000,11.593 C102.262,11.092 102.408,10.590 102.524,10.061 C102.669,9.559 102.786,9.169 102.931,8.667 C102.786,8.667 102.669,8.667 102.524,8.528 C102.378,8.528 102.262,8.389 102.117,8.389 C102.262,8.389 102.378,8.249 102.524,8.249 C102.669,8.249 102.786,8.110 102.931,8.110 C102.786,7.720 102.669,7.218 102.524,6.716 C102.378,6.215 102.117,5.713 102.000,5.184 C102.408,5.184 102.786,5.323 103.309,5.434 C103.309,5.434 103.309,5.434 103.454,5.434 C103.978,6.075 104.385,6.689 104.647,7.079 C104.908,7.469 105.170,7.720 105.315,7.831 C106.100,7.692 107.031,7.692 108.223,7.580 C109.822,7.441 110.607,7.190 110.607,6.828 C110.607,6.438 110.346,5.574 109.822,4.431 C109.299,3.177 108.630,1.644 107.845,0.000 L108.107,0.000 C108.630,0.000 109.154,0.139 109.561,0.502 C109.968,0.752 110.346,1.254 110.869,2.034 L111.538,2.926 L112.730,4.459 L113.399,5.351 L114.969,7.469 Z" class="cls-2"/>
  </g>
</svg>
