<?xml version="1.0" encoding="iso-8859-1"?>
<!-- Generator: Adobe Illustrator 19.2.0, SVG Export Plug-In . SVG Version: 6.00 Build 0)  -->
<svg version="1.0" id="Layer_1" xmlns="http://www.w3.org/2000/svg" xmlns:xlink="http://www.w3.org/1999/xlink" x="0px" y="0px"
	 viewBox="0 0 6.389 9.372" style="enable-background:new 0 0 6.389 9.372;" xml:space="preserve">
<path style="fill:#424142;" d="M1.232,9.372h3.926c0.68,0,1.232-0.551,1.232-1.232V1.247c0-0.68-0.551-1.232-1.232-1.232H1.232
	C0.551,0.016,0,0.567,0,1.247v6.893C0,8.821,0.551,9.372,1.232,9.372z"/>
<g>
	<g>
		<path style="opacity:0.36;fill:none;stroke:#FFFFFF;stroke-width:0.5;stroke-miterlimit:10;" d="M5.747,0.016H0.601v3.381
			c0,0.614,0.498,1.112,1.112,1.112l2.922-0.001c0.614,0,1.112-0.498,1.112-1.112V0.016z"/>
	</g>
	<g>
		<path style="opacity:0.36;fill:none;stroke:#FFFFFF;stroke-width:0.5;stroke-miterlimit:10;" d="M0.601,9.372h5.146V8.238
			c0-0.614-0.498-1.112-1.112-1.112L1.713,7.127c-0.614,0-1.112,0.498-1.112,1.112V9.372z"/>
	</g>
</g>
</svg>
