<svg xmlns="http://www.w3.org/2000/svg" width="12" height="18" viewBox="0 0 12 18">
    <path fill="#CDCCCC" fill-rule="evenodd" d="M12 12.947H0V3.316a3 3 0 0 1 3-3h6a3 3 0 0 1 3 3v9.631zm0 1.264V15a3 3 0 0 1-3 3H3a3 3 0 0 1-3-3v-.79h12z"/>
</svg>
