<svg xmlns="http://www.w3.org/2000/svg" xmlns:xlink="http://www.w3.org/1999/xlink" preserveAspectRatio="xMidYMid" width="120" height="17" viewBox="0 0 120 17">
  <defs>
    <style>
      .cls-1 {
        fill: #919191;
        opacity: 0.3;
      }

      .cls-2 {
        fill: #ed0000;
        fill-rule: evenodd;
      }
    </style>
  </defs>
  <g>
    <rect x="22" y="7" width="98" height="3" class="cls-1"/>
    <path d="M5.031,7.469 C3.170,7.469 2.007,7.608 1.193,7.720 C0.408,7.859 0.000,8.110 0.000,8.361 C0.000,8.751 0.408,8.862 1.193,9.113 C1.978,9.253 3.315,9.364 5.031,9.364 L6.746,11.649 L7.415,12.541 L8.607,14.074 L9.276,14.966 C9.683,15.718 10.207,16.220 10.585,16.498 C10.992,16.749 11.515,17.000 12.039,17.000 L12.300,17.000 C11.515,15.356 10.846,13.823 10.323,12.569 C9.800,11.315 9.538,10.423 9.538,10.033 C9.538,9.643 10.323,9.392 11.777,9.280 C12.969,9.280 13.900,9.141 14.801,9.030 C14.946,9.169 15.208,9.420 15.470,9.782 C15.732,10.172 16.139,10.674 16.662,11.315 C16.924,11.315 17.069,11.454 17.331,11.454 C17.592,11.454 17.738,11.593 18.000,11.593 C17.738,11.092 17.592,10.590 17.476,10.061 C17.331,9.559 17.214,9.169 17.069,8.667 C17.214,8.667 17.331,8.667 17.476,8.528 C17.622,8.528 17.738,8.389 17.883,8.389 C17.738,8.389 17.622,8.249 17.476,8.249 C17.331,8.249 17.214,8.110 17.069,8.110 C17.214,7.720 17.331,7.218 17.476,6.716 C17.622,6.215 17.883,5.713 18.000,5.184 C17.592,5.184 17.214,5.323 16.691,5.434 C16.691,5.434 16.691,5.434 16.546,5.434 C16.022,6.075 15.615,6.689 15.353,7.079 C15.092,7.469 14.830,7.720 14.685,7.831 C13.900,7.692 12.969,7.692 11.777,7.580 C10.178,7.441 9.393,7.190 9.393,6.828 C9.393,6.438 9.654,5.574 10.178,4.431 C10.701,3.177 11.370,1.644 12.155,0.000 L11.893,0.000 C11.370,0.000 10.846,0.139 10.439,0.502 C10.032,0.752 9.654,1.254 9.131,2.034 L8.462,2.926 L7.270,4.459 L6.601,5.351 L5.031,7.469 Z" class="cls-2"/>
  </g>
</svg>
